{
  "Cabinet":{
    "costPerItem": 1200
  },
  "Chamber": {
    "costPerItem": 200
  },
  "Pot":{
    "costPerItem": 0,
    "costPerMeter": 20
  },
  "roadTrench": {
    "costPerMeter": 80
  },
  "vergeTrench": {
    "costPerMeter": 40
  }
}